INDEX VERSION 1.127+/home/logain/UNQ/Objetos 3/DSL_externos/.metadata/.plugins/org.eclipse.jdt.core
314674099.index
1523669777.index
2875788011.index
3044867450.index
164078082.index
3232471327.index
526054698.index
521007113.index
3521232804.index
2068599898.index
457176746.index
2109187123.index
2731264728.index
107063669.index
1394606641.index
790392033.index
2838162954.index
1722821658.index
1162569670.index
2065892317.index
3839130608.index
3530280816.index
1144698931.index
3953896707.index
600491387.index
1229579054.index
1543181741.index
117635114.index
544084661.index
1656970545.index
2262446306.index
1551266366.index
2774204995.index
968847671.index
184246268.index
1901915454.index
2496230297.index
3760984079.index
2236369023.index
2345302051.index
2082177293.index
91703982.index
2005253245.index
338377354.index
2323563442.index
1597527966.index
881056588.index
944267282.index
3380988090.index
3739034859.index
928745074.index
918080910.index
201866672.index
4192614952.index
1147437737.index
505592642.index
1621707879.index
3289500129.index
1977800826.index
1879028455.index
2124217137.index
4102043474.index
2462804945.index
2133968967.index
139624962.index
502654422.index
2565034679.index
3049163025.index
12779523.index
1421554002.index
303675478.index
3434125529.index
2639044783.index
1217248425.index
2277715748.index
1608449827.index
1909639721.index
1885950163.index
1401358676.index
1460711140.index
1116567213.index
2878493132.index
342638429.index
546911985.index
884942638.index
2708496887.index
2167999227.index
821593947.index
4073076843.index
674973749.index
3995763613.index
4028790071.index
253149477.index
1463533992.index
