<?xml version="1.0" encoding="UTF-8"?>
<session version="1.0">
<refactoring comment="Delete 4 resources" deleteContents="true" description="Delete 4 resources" element1="/ar.edu.unq.obj3.dsl.planificaciones" element2="/ar.edu.unq.obj3.dsl.planificaciones.sdk" element3="/ar.edu.unq.obj3.dsl.planificaciones.tests" element4="/ar.edu.unq.obj3.dsl.planificaciones.ui" flags="7" id="org.eclipse.ltk.core.refactoring.delete.resources" resources="4" stamp="1416451021022"/>
</session>